{
    "name": "Solid",
    "groups": [{
        "id": "main",
        "label": "Main Blocks",
        "position": 0
    },
    {
        "id": "iconbox",
        "label": "Icon boxes",
        "position": 1
    },
    {
        "id": "portfolio",
        "label": "Portfolio boxes",
        "position": 2
    },
    {
        "id": "contakt_cards",
        "label": "Contakt boxes",
        "position": 3
    },
    {
        "id": "about",
        "label": "About boxes",
        "position": 4
    }],
    "blocks": [{
        "name": "mainblock",
        "url": "%theme_url%/blocks/mainblock/"
    }, {
        "name": "iconbox",
        "url": "%theme_url%/blocks/iconbox/"
    }, {
        "name": "portfolio",
        "url": "%theme_url%/blocks/portfolio/"
    }, {
        "name": "madialib",
        "url": "%theme_url%/blocks/madialib/"
    }, {
        "name": "contakt_cards",
        "url": "%theme_url%/blocks/contakt_cards/"
    }, {
        "name": "about",
        "url": "%theme_url%/blocks/about/"
    }]
}